…
proportion_test_data = left_join(total_number_homicides, number_unsolved_homicides) 
```

    ## Joining, by = "city_state"

``` r
proportion_test_data[is.na(proportion_test_data)] <- 0

proportion_test_data
```

    ## # A tibble: 51 x 3
    ##    city_state      total_num_homicides num_unsolved_homicides
    ##    <chr>                         <int>                  <dbl>
    ##  1 Albuquerque, NM                 378                    146
    ##  2 Atlanta, GA                     973                    373
    ##  3 Baltimore, MD                  2827                   1825
    ##  4 Baton Rouge, LA                 424                    196
    ##  5 Birmingham, AL                  800                    347
    ##  6 Boston, MA                      614                    310
    ##  7 Buffalo, NY                     521                    319
    ##  8 Charlotte, NC                   687                    206
    ##  9 Chicago, IL                    5535                   4073
    ## 10 Cincinnati, OH                  694                    309
    ## # ... with 41 more rows
…
``` r
proportion_test_output = map2(.x = proportion_test_data$num_unsolved_homicides, .y = proportion_test_data$total_num_homicides, ~prop.test(.x, .y))
```

    ## Warning in prop.test(.x, .y): Chi-squared approximation may be incorrect

``` r
proportion_test_output = map_df(.x = proportion_test_output, ~broom::tidy(.x)) %>%
  mutate(city_state = proportion_test_data$city_state) %>%
  select(estimate, conf.low, conf.high, city_state)

proportion_test_output
```

    ## # A tibble: 51 x 4
    ##    estimate conf.low conf.high city_state     
    ##       <dbl>    <dbl>     <dbl> <chr>          
    ##  1    0.386    0.337     0.438 Albuquerque, NM
    ##  2    0.383    0.353     0.415 Atlanta, GA    
    ##  3    0.646    0.628     0.663 Baltimore, MD  
    ##  4    0.462    0.414     0.511 Baton Rouge, LA
    ##  5    0.434    0.399     0.469 Birmingham, AL 
    ##  6    0.505    0.465     0.545 Boston, MA     
    ##  7    0.612    0.569     0.654 Buffalo, NY    
    ##  8    0.300    0.266     0.336 Charlotte, NC  
    ##  9    0.736    0.724     0.747 Chicago, IL    
    ## 10    0.445    0.408     0.483 Cincinnati, OH 
    ## # ... with 41 more rows
…
